HTTP/1.1 200 OK
accept-ranges: bytes
age: 0
cache-control: public, max-age=3600
Content-Type: application/json
Date: Mon, 02 Nov 2015 17:44:11 GMT
location:
Server: nginx
strict-transport-security: max-age=31536000
vary: Accept-Encoding, Accept-Encoding
via: 1.1 varnish-v4
x-cache: MISS
x-cf-requestid: e6d46734-e4a2-4f5b-5c1e-5eb3c60e0a13
x-content-type-options: nosniff
x-frame-options: DENY
x-varnish: 64280085
x-xss-protection: 1; mode=block
Content-Length: 8577
Connection: keep-alive

{"pagination":{"count":655,"pages":33,"page":1,"per_page":20},"results":[{"first_file_date":"2017-07-07","office":"H","active_through":2018,"incumbent_challenge_full":"Challenger","election_districts":["10"],"state":"VA","cycles":[2018],"election_years":[2018],"load_date":"2017-10-16T21:00:02","incumbent_challenge":"C","district":"10","candidate_id":"H8VA10148","name":"ADAMS, KIMBERLY","candidate_status":"C","office_full":"House","last_f2_date":"2017-07-07","last_file_date":"2017-07-07","party_full":"DEMOCRATIC PARTY","flags":"H8VA10148","has_raised_funds":true,"district_number":10,"federal_funds_flag":false,"party":"DEM"},{"first_file_date":"2008-01-23","office":"H","active_through":2008,"incumbent_challenge_full":"Challenger","election_districts":["11"],"state":"VA","cycles":[2008,2010],"election_years":[2008],"load_date":"2008-05-12T00:00:00","incumbent_challenge":"C","district":"11","candidate_id":"H8VA11054","name":"ALEXANDER, LORI P","candidate_status":"C","office_full":"House","last_f2_date":"2008-01-23","last_file_date":"2008-01-23","party_full":"DEMOCRATIC PARTY","flags":"H8VA11054","has_raised_funds":true,"district_number":11,"federal_funds_flag":false,"party":"DEM"},{"first_file_date":"1999-04-19","office":"S","active_through":2012,"incumbent_challenge_full":"Open seat","election_districts":["00","00","00"],"state":"VA","cycles":[2000,2002,2004,2006,2008,2012,2014],"election_years":[2000,2006,2012],"load_date":"2013-04-26T09:04:30","incumbent_challenge":"O","district":"00","candidate_id":"S8VA00214","name":"ALLEN, GEORGE","candidate_status":"P","office_full":"Senate","last_f2_date":"2012-11-20","last_file_date":"2012-11-20","party_full":"REPUBLICAN PARTY","flags":"S8VA00214","has_raised_funds":true,"district_number":0,"federal_funds_flag":false,"party":"REP"},{"first_file_date":"1991-07-11","office":"H","active_through":1992,"incumbent_challenge_full":"Challenger","election_districts":["07"],"state":"VA","cycles":[1992,1994],"election_years":[1992],"load_date":"2002-03-30T00:00:00","incumbent_challenge":"C","district":"07","candidate_id":"H2VA07030","name":"ALLEN, GEORGE F","candidate_status":"P","office_full":"House","last_f2_date":"1991-07-19","last_file_date":"1991-07-19","party_full":"REPUBLICAN PARTY","flags":"H2VA07030","has_raised_funds":true,"district_number":7,"federal_funds_flag":false,"party":"REP"},{"first_file_date":"2008-07-30","office":"H","active_through":2008,"incumbent_challenge_full":"Challenger","election_districts":["06"],"state":"VA","cycles":[2008],"election_years":[2008],"load_date":"2008-10-16T00:00:00","incumbent_challenge":"C","district":"06","candidate_id":"H8VA06062","name":"ALLEN, JANICE LEE","candidate_status":"C","office_full":"House","last_f2_date":"2008-07-30","last_file_date":"2008-07-30","party_full":"INDEPENDENT","flags":"H8VA06062","has_raised_funds":true,"district_number":6,"federal_funds_flag":false,"party":"IND"},{"first_file_date":"2017-02-25","office":"H","active_through":2018,"incumbent_challenge_full":"Challenger","election_districts":["07"],"state":"VA","cycles":[2018],"election_years":[2018],"load_date":"2018-01-24T21:11:39","incumbent_challenge":"C","district":"07","candidate_id":"H8VA07060","name":"ALLI, HELEN","candidate_status":"C","office_full":"House","last_f2_date":"2017-02-25","last_file_date":"2017-02-25","party_full":"DEMOCRATIC PARTY","flags":"H8VA07060","has_raised_funds":true,"district_number":7,"federal_funds_flag":false,"party":"DEM"},{"first_file_date":"2000-04-19","office":"H","active_through":2000,"incumbent_challenge_full":"Open seat","election_districts":["01"],"state":"VA","cycles":[2000],"election_years":[2000],"load_date":"2002-04-07T00:00:00","incumbent_challenge":"O","district":"01","candidate_id":"H0VA01136","name":"ALTEMUS, TERESA L","candidate_status":"C","office_full":"House","last_f2_date":"2000-04-19","last_file_date":"2000-04-19","party_full":"REPUBLICAN PARTY","flags":"H0VA01136","has_raised_funds":true,"district_number":1,"federal_funds_flag":false,"party":"REP"},{"first_file_date":"2002-08-08","office":"H","active_through":2002,"incumbent_challenge_full":"Open seat","election_districts":["02"],"state":"VA","cycles":[2002],"election_years":[2002],"load_date":"2002-09-30T00:00:00","incumbent_challenge":"O","district":"02","candidate_id":"H2VA04078","name":"AMARASINGHE, D. C.","candidate_status":"N","office_full":"House","last_f2_date":"2002-08-08","last_file_date":"2002-08-08","party_full":"GREEN PARTY","flags":"H2VA04078","has_raised_funds":true,"district_number":2,"federal_funds_flag":false,"party":"GRE"},{"first_file_date":null,"office":"H","active_through":1982,"incumbent_challenge_full":"Open seat","election_districts":["06"],"state":"VA","cycles":[1982],"election_years":[1982],"load_date":"2002-03-30T00:00:00","incumbent_challenge":"O","district":"06","candidate_id":"H2VA06065","name":"ANDERSON, WILLIS M","candidate_status":"N","office_full":"House","last_f2_date":null,"last_file_date":null,"party_full":"DEMOCRATIC PARTY","flags":"H2VA06065","has_raised_funds":false,"district_number":6,"federal_funds_flag":false,"party":"DEM"},{"first_file_date":"2009-10-23","office":"H","active_through":2010,"incumbent_challenge_full":"Challenger","election_districts":["10"],"state":"VA","cycles":[2010,2012],"election_years":[2010],"load_date":"2011-02-24T10:53:12","incumbent_challenge":"C","district":"10","candidate_id":"H0VA10103","name":"ANTHONY, RICHARD","candidate_status":"P","office_full":"House","last_f2_date":"2009-10-23","last_file_date":"2009-10-23","party_full":"DEMOCRATIC PARTY","flags":"H0VA10103","has_raised_funds":true,"district_number":10,"federal_funds_flag":false,"party":"DEM"},{"first_file_date":"1987-11-03","office":"H","active_through":1988,"incumbent_challenge_full":"Challenger","election_districts":["05"],"state":"VA","cycles":[1988,1990],"election_years":[1988],"load_date":"2002-03-30T00:00:00","incumbent_challenge":"C","district":"05","candidate_id":"H8VA05023","name":"AREY, LINDA LUGENIA","candidate_status":"P","office_full":"House","last_f2_date":"1987-11-03","last_file_date":"1987-11-03","party_full":"REPUBLICAN PARTY","flags":"H8VA05023","has_raised_funds":true,"district_number":5,"federal_funds_flag":false,"party":"REP"},{"first_file_date":"1994-02-25","office":"H","active_through":1994,"incumbent_challenge_full":"Challenger","election_districts":["11"],"state":"VA","cycles":[1994,1996,1998],"election_years":[1994],"load_date":"2002-04-03T00:00:00","incumbent_challenge":"C","district":"11","candidate_id":"H4VA11038","name":"ARMSTRONG, STEPHEN ANDREW","candidate_status":"N","office_full":"House","last_f2_date":"1994-06-14","last_file_date":"1994-06-14","party_full":"REPUBLICAN PARTY","flags":"H4VA11038","has_raised_funds":true,"district_number":11,"federal_funds_flag":false,"party":"REP"},{"first_file_date":"2004-03-16","office":"H","active_through":2006,"incumbent_challenge_full":"Challenger","election_districts":["02","02"],"state":"VA","cycles":[2004,2006,2008,2010,2012,2014,2016,2018],"election_years":[2004,2006],"load_date":"2009-04-29T22:11:29","incumbent_challenge":"C","district":"02","candidate_id":"H4VA02029","name":"ASHE, DAVID BENJAMIN","candidate_status":"P","office_full":"House","last_f2_date":"2005-11-02","last_file_date":"2005-11-02","party_full":"DEMOCRATIC PARTY","flags":"H4VA02029","has_raised_funds":true,"district_number":2,"federal_funds_flag":false,"party":"DEM"},{"first_file_date":null,"office":"H","active_through":1996,"incumbent_challenge_full":"Challenger","election_districts":["01"],"state":"VA","cycles":[1996],"election_years":[1996],"load_date":"2002-04-02T00:00:00","incumbent_challenge":"C","district":"01","candidate_id":"H6VA01133","name":"AXOM, RUSSELL","candidate_status":"N","office_full":"House","last_f2_date":null,"last_file_date":null,"party_full":"DEMOCRATIC PARTY","flags":"H6VA01133","has_raised_funds":false,"district_number":1,"federal_funds_flag":false,"party":"DEM"},{"first_file_date":"1977-11-12","office":"S","active_through":1977,"incumbent_challenge_full":"Challenger","election_districts":["00","00"],"state":"VA","cycles":[1976,1978,1980],"election_years":[1976,1977],"load_date":"2002-03-30T00:00:00","incumbent_challenge":"C","district":"00","candidate_id":"S8VA00016","name":"BABSON, FREDERICK A. JR.","candidate_status":"P","office_full":"Senate","last_f2_date":"1977-11-12","last_file_date":"1977-11-12","party_full":"DEMOCRATIC PARTY","flags":"S8VA00016","has_raised_funds":false,"district_number":0,"federal_funds_flag":false,"party":"DEM"},{"first_file_date":"2010-02-26","office":"H","active_through":2010,"incumbent_challenge_full":"Challenger","election_districts":["06"],"state":"VA","cycles":[2010,2012],"election_years":[2010],"load_date":"2011-02-24T10:53:11","incumbent_challenge":"C","district":"06","candidate_id":"H0VA06028","name":"BAIN, STUART MATTHEW","candidate_status":"P","office_full":"House","last_f2_date":"2010-02-26","last_file_date":"2010-02-26","party_full":"LIBERTARIAN PARTY","flags":"H0VA06028","has_raised_funds":true,"district_number":6,"federal_funds_flag":false,"party":"LIB"},{"first_file_date":"2009-04-27","office":"H","active_through":2010,"incumbent_challenge_full":"Challenger","election_districts":["01"],"state":"VA","cycles":[2010,2012],"election_years":[2010],"load_date":"2011-02-24T10:53:11","incumbent_challenge":"C","district":"01","candidate_id":"H0VA01151","name":"BALL, KRYSTAL MARIE","candidate_status":"P","office_full":"House","last_f2_date":"2009-04-27","last_file_date":"2009-04-27","party_full":"DEMOCRATIC PARTY","flags":"H0VA01151","has_raised_funds":true,"district_number":1,"federal_funds_flag":false,"party":"DEM"},{"first_file_date":"1983-03-22","office":"S","active_through":1984,"incumbent_challenge_full":null,"election_districts":["00"],"state":"VA","cycles":[1984],"election_years":[1984],"load_date":"2002-03-30T00:00:00","incumbent_challenge":null,"district":"00","candidate_id":"S4VA00015","name":"BANKS, ROBERT C","candidate_status":"N","office_full":"Senate","last_f2_date":"1983-03-22","last_file_date":"1983-03-22","party_full":"DEMOCRATIC PARTY","flags":"S4VA00015","has_raised_funds":false,"district_number":0,"federal_funds_flag":false,"party":"DEM"},{"first_file_date":null,"office":"H","active_through":1982,"incumbent_challenge_full":"Open seat","election_districts":["06"],"state":"VA","cycles":[1982],"election_years":[1982],"load_date":"2002-03-30T00:00:00","incumbent_challenge":"O","district":"06","candidate_id":"H2VA06099","name":"BANTON, JOHN T JR","candidate_status":"N","office_full":"House","last_f2_date":null,"last_file_date":null,"party_full":"REPUBLICAN PARTY","flags":"H2VA06099","has_raised_funds":false,"district_number":6,"federal_funds_flag":false,"party":"REP"},{"first_file_date":"1988-03-21","office":"H","active_through":1988,"incumbent_challenge_full":"Open seat","election_districts":["05"],"state":"VA","cycles":[1988],"election_years":[1988],"load_date":"2005-05-26T00:00:00","incumbent_challenge":"O","district":"05","candidate_id":"H8VA05031","name":"BARKER, W ONICO","candidate_status":"C","office_full":"House","last_f2_date":"1988-03-21","last_file_date":"1988-03-21","party_full":"REPUBLICAN PARTY","flags":"H8VA05031","has_raised_funds":true,"district_number":5,"federal_funds_flag":false,"party":"REP"}],"api_version":"1.0"}
