{"results":[{"office_full":"House","last_f2_date":"1978-07-05","load_date":"2002-03-30T00:00:00","cycles":[1976,1978,1980],"federal_funds_flag":false,"election_years":[1976,1978],"candidate_status":"P","first_file_date":"1976-04-12","party_full":"REPUBLICAN PARTY","has_raised_funds":true,"party":"REP","candidate_id":"H6PA16106","election_districts":["16","16"],"incumbent_challenge":null,"active_through":1978,"office":"H","name":"AAMODT, NORMAN O.","district_number":16,"flags":"H6PA16106","state":"PA","district":"16","incumbent_challenge_full":null,"last_file_date":"1978-07-05"},{"office_full":"House","last_f2_date":"1980-05-22","load_date":"2002-03-30T00:00:00","cycles":[1980,1982,1984],"federal_funds_flag":false,"election_years":[1980],"candidate_status":"P","first_file_date":"1980-05-22","party_full":"REPUBLICAN PARTY","has_raised_funds":true,"party":"REP","candidate_id":"H0NY39012","election_districts":["39"],"incumbent_challenge":null,"active_through":1980,"office":"H","name":"ABDELLA, JAMES","district_number":39,"flags":"H0NY39012","state":"NY","district":"39","incumbent_challenge_full":null,"last_file_date":"1980-05-22"},{"office_full":"House","last_f2_date":"1980-02-27","load_date":"2002-03-30T00:00:00","cycles":[1976,1978,1980],"federal_funds_flag":false,"election_years":[1976,1978,1980],"candidate_status":"P","first_file_date":"1976-01-26","party_full":"REPUBLICAN PARTY","has_raised_funds":false,"party":"REP","candidate_id":"H6SD02024","election_districts":["02","02","02"],"incumbent_challenge":"I","active_through":1980,"office":"H","name":"ABDNOR, JAMES","district_number":2,"flags":"H6SD02024","state":"SD","district":"02","incumbent_challenge_full":"Incumbent","last_file_date":"1980-02-27"},{"office_full":"Senate","last_f2_date":"1986-09-09","load_date":"2002-04-12T00:00:00","cycles":[1980,1982,1984,1986,1988,1990,1992,1994,1996,1998,2000,2002,2004],"federal_funds_flag":false,"election_years":[1980,1986],"candidate_status":"P","first_file_date":"1980-02-15","party_full":"REPUBLICAN PARTY","has_raised_funds":true,"party":"REP","candidate_id":"S0SD00054","election_districts":["00","00"],"incumbent_challenge":"C","active_through":1986,"office":"S","name":"ABDNOR, JAMES","district_number":0,"flags":"S0SD00054","state":"SD","district":"00","incumbent_challenge_full":"Challenger","last_file_date":"1987-02-19"},{"office_full":"House","last_f2_date":null,"load_date":"2002-03-30T00:00:00","cycles":[1980],"federal_funds_flag":false,"election_years":[1980],"candidate_status":"N","first_file_date":null,"party_full":"REPUBLICAN PARTY","has_raised_funds":true,"party":"REP","candidate_id":"H0KS02048","election_districts":["02"],"incumbent_challenge":null,"active_through":1980,"office":"H","name":"ABELDT, LARRY","district_number":2,"flags":"H0KS02048","state":"KS","district":"02","incumbent_challenge_full":null,"last_file_date":null},{"office_full":"House","last_f2_date":"1977-02-11","load_date":"2002-03-30T00:00:00","cycles":[1978,1980,1982,1984],"federal_funds_flag":false,"election_years":[1977],"candidate_status":"P","first_file_date":"1977-02-11","party_full":"DEMOCRATIC PARTY","has_raised_funds":true,"party":"DEM","candidate_id":"H6GA05134","election_districts":["05"],"incumbent_challenge":"C","active_through":1977,"office":"H","name":"ABERNATHY, RALPH DAVID","district_number":5,"flags":"H6GA05134","state":"GA","district":"05","incumbent_challenge_full":"Challenger","last_file_date":"1980-07-27"},{"office_full":"House","last_f2_date":"1976-03-22","load_date":"2002-03-30T00:00:00","cycles":[1976,1978,1980,1982,1984],"federal_funds_flag":false,"election_years":[1976,2000],"candidate_status":"P","first_file_date":"1976-03-22","party_full":"DEMOCRATIC PARTY","has_raised_funds":false,"party":"DEM","candidate_id":"H6MD02013","election_districts":["02","02"],"incumbent_challenge":null,"active_through":2000,"office":"H","name":"ABRAMS, ROSALIE SILBER","district_number":2,"flags":"H6MD02013","state":"MD","district":"02","incumbent_challenge_full":null,"last_file_date":"1976-03-22"},{"office_full":"House","last_f2_date":"1978-01-31","load_date":"2002-03-30T00:00:00","cycles":[1978,1980,1982,1984],"federal_funds_flag":false,"election_years":[1978],"candidate_status":"P","first_file_date":"1978-01-31","party_full":"DEMOCRATIC PARTY","has_raised_funds":true,"party":"DEM","candidate_id":"H8NY18134","election_districts":["18"],"incumbent_challenge":"C","active_through":1978,"office":"H","name":"ABZUG, BELLA S.","district_number":18,"flags":"H8NY18134","state":"NY","district":"18","incumbent_challenge_full":"Challenger","last_file_date":"1978-01-31"},{"office_full":"Senate","last_f2_date":"1976-07-10","load_date":"2002-03-30T00:00:00","cycles":[1976,1978,1980,1982,1984],"federal_funds_flag":false,"election_years":[1976,1982],"candidate_status":"P","first_file_date":"1976-07-10","party_full":"DEMOCRATIC PARTY","has_raised_funds":true,"party":"DEM","candidate_id":"S6NY00037","election_districts":["00","00"],"incumbent_challenge":null,"active_through":1982,"office":"S","name":"ABZUG, BELLA S.","district_number":0,"flags":"S6NY00037","state":"NY","district":"00","incumbent_challenge_full":null,"last_file_date":"1976-10-19"},{"office_full":"House","last_f2_date":"1980-08-21","load_date":"2002-03-30T00:00:00","cycles":[1980,1982,1984],"federal_funds_flag":false,"election_years":[1980],"candidate_status":"P","first_file_date":"1980-08-21","party_full":"CONSERVATIVE PARTY","has_raised_funds":false,"party":"CRV","candidate_id":"H0NY21028","election_districts":["21"],"incumbent_challenge":null,"active_through":1980,"office":"H","name":"ACETO, GINA A","district_number":21,"flags":"H0NY21028","state":"NY","district":"21","incumbent_challenge_full":null,"last_file_date":"1980-08-21"},{"office_full":"President","last_f2_date":"1980-03-24","load_date":"2002-03-30T00:00:00","cycles":[1980],"federal_funds_flag":false,"election_years":[1980],"candidate_status":"C","first_file_date":"1980-03-24","party_full":"INDEPENDENT","has_raised_funds":false,"party":"IND","candidate_id":"P00002626","election_districts":["00"],"incumbent_challenge":null,"active_through":1980,"office":"P","name":"ACHLEY, TEDDY M","district_number":0,"flags":"P00002626","state":"US","district":"00","incumbent_challenge_full":null,"last_file_date":"1980-03-24"},{"office_full":"House","last_f2_date":"1979-08-31","load_date":"2002-03-30T00:00:00","cycles":[1980,1982,1984],"federal_funds_flag":false,"election_years":[1980],"candidate_status":"P","first_file_date":"1979-08-31","party_full":"DEMOCRATIC PARTY","has_raised_funds":true,"party":"DEM","candidate_id":"H0IN05011","election_districts":["05"],"incumbent_challenge":null,"active_through":1980,"office":"H","name":"ACKERSON, NELS","district_number":5,"flags":"H0IN05011","state":"IN","district":"05","incumbent_challenge_full":null,"last_file_date":"1979-08-31"},{"office_full":"House","last_f2_date":"1979-03-29","load_date":"2002-03-30T00:00:00","cycles":[1980],"federal_funds_flag":false,"election_years":[1980],"candidate_status":"P","first_file_date":"1979-03-29","party_full":"DEMOCRATIC PARTY","has_raised_funds":false,"party":"DEM","candidate_id":"H0NC04014","election_districts":["04"],"incumbent_challenge":null,"active_through":1980,"office":"H","name":"ADAME, MARSHALL RICHARD","district_number":4,"flags":"H0NC04014","state":"NC","district":"04","incumbent_challenge_full":null,"last_file_date":"1980-01-18"},{"office_full":"House","last_f2_date":null,"load_date":"2002-03-30T00:00:00","cycles":[1980],"federal_funds_flag":false,"election_years":[1980],"candidate_status":"N","first_file_date":null,"party_full":"DEMOCRATIC PARTY","has_raised_funds":false,"party":"DEM","candidate_id":"H0OK05031","election_districts":["05"],"incumbent_challenge":null,"active_through":1980,"office":"H","name":"ADAMS, ART","district_number":5,"flags":"H0OK05031","state":"OK","district":"05","incumbent_challenge_full":null,"last_file_date":null},{"office_full":"House","last_f2_date":null,"load_date":"2002-04-03T00:00:00","cycles":[1976,1978,1980,1982,1984,1986,1988,1990,1992,1994,1996,1998],"federal_funds_flag":false,"election_years":[1976,1978,2000],"candidate_status":"P","first_file_date":"1976-09-10","party_full":"DEMOCRATIC PARTY","has_raised_funds":true,"party":"DEM","candidate_id":"H6WA07029","election_districts":["07","07","07"],"incumbent_challenge":"C","active_through":2000,"office":"H","name":"ADAMS, BROCK","district_number":7,"flags":"H6WA07029","state":"WA","district":"07","incumbent_challenge_full":"Challenger","last_file_date":"1977-06-28"},{"office_full":"House","last_f2_date":null,"load_date":"2002-03-30T00:00:00","cycles":[1980],"federal_funds_flag":false,"election_years":[1980],"candidate_status":"N","first_file_date":null,"party_full":"REPUBLICAN PARTY","has_raised_funds":false,"party":"REP","candidate_id":"H0WA03039","election_districts":["03"],"incumbent_challenge":null,"active_through":1980,"office":"H","name":"ADAMS, HENRY L","district_number":3,"flags":"H0WA03039","state":"WA","district":"03","incumbent_challenge_full":null,"last_file_date":null},{"office_full":"House","last_f2_date":"1977-11-15","load_date":"2002-03-30T00:00:00","cycles":[1978,1980,1982,1984],"federal_funds_flag":false,"election_years":[1978],"candidate_status":"P","first_file_date":"1977-11-15","party_full":"DEMOCRATIC PARTY","has_raised_funds":false,"party":"DEM","candidate_id":"H8FL12021","election_districts":["12"],"incumbent_challenge":null,"active_through":1978,"office":"H","name":"ADAMS, JOHN","district_number":12,"flags":"H8FL12021","state":"FL","district":"12","incumbent_challenge_full":null,"last_file_date":"1977-11-15"},{"office_full":"House","last_f2_date":"1980-04-11","load_date":"2002-03-30T00:00:00","cycles":[1980,1982,1984],"federal_funds_flag":false,"election_years":[1980],"candidate_status":"P","first_file_date":"1980-04-11","party_full":"REPUBLICAN PARTY","has_raised_funds":true,"party":"REP","candidate_id":"H0TN05036","election_districts":["05"],"incumbent_challenge":null,"active_through":1980,"office":"H","name":"ADAMS, MICHAEL F","district_number":5,"flags":"H0TN05036","state":"TN","district":"05","incumbent_challenge_full":null,"last_file_date":"1980-04-11"},{"office_full":"House","last_f2_date":"1979-12-12","load_date":"2002-03-30T00:00:00","cycles":[1980,1982,1984],"federal_funds_flag":false,"election_years":[1980],"candidate_status":"P","first_file_date":"1979-12-12","party_full":"DEMOCRATIC PARTY","has_raised_funds":true,"party":"DEM","candidate_id":"H0PA11027","election_districts":["11"],"incumbent_challenge":"C","active_through":1980,"office":"H","name":"ADAMS, RICHARD PETER","district_number":11,"flags":"H0PA11027","state":"PA","district":"11","incumbent_challenge_full":"Challenger","last_file_date":"1980-01-30"},{"office_full":"House","last_f2_date":null,"load_date":"2002-03-30T00:00:00","cycles":[1980],"federal_funds_flag":false,"election_years":[1980],"candidate_status":"N","first_file_date":null,"party_full":"DEMOCRATIC PARTY","has_raised_funds":false,"party":"DEM","candidate_id":"H0IN08023","election_districts":["08"],"incumbent_challenge":null,"active_through":1980,"office":"H","name":"ADAMS, SAMUEL PAYNE","district_number":8,"flags":"H0IN08023","state":"IN","district":"08","incumbent_challenge_full":null,"last_file_date":null}],"pagination":{"per_page":20,"count":3956,"page":1,"pages":198},"api_version":"1.0"}
