{"api_version":"1.0","pagination":{"page":1,"count":13688,"per_page":20,"pages":685},"results":[{"federal_funds_flag":false,"last_file_date":"2017-04-26","district":"06","election_years":[2018],"flags":"H8CO06237","has_raised_funds":true,"party":"DEM","election_districts":["06"],"candidate_status":"C","last_f2_date":"2017-04-26","first_file_date":"2017-04-26","cycles":[2018],"incumbent_challenge":"C","active_through":2018,"load_date":"2017-08-01T20:57:28","state":"CO","party_full":"DEMOCRATIC PARTY","district_number":6,"incumbent_challenge_full":"Challenger","candidate_id":"H8CO06237","office":"H","name":"AARESTAD, DAVID","office_full":"House"},{"federal_funds_flag":false,"last_file_date":"2007-03-13","district":"00","election_years":[2008],"flags":"P80002926","has_raised_funds":true,"party":"DEM","election_districts":["00"],"candidate_status":"N","last_f2_date":"2007-03-13","first_file_date":"2005-10-12","cycles":[2006,2008,2010,2012,2014,2016],"incumbent_challenge":"O","active_through":2008,"load_date":"2016-11-17T06:10:48","state":"US","party_full":"DEMOCRATIC PARTY","district_number":0,"incumbent_challenge_full":"Open seat","candidate_id":"P80002926","office":"P","name":"AARON, LAURA DAVIS","office_full":"President"},{"federal_funds_flag":false,"last_file_date":"2011-10-03","district":"00","election_years":[2012],"flags":"H2MT00039","has_raised_funds":false,"party":"DEM","election_districts":["00"],"candidate_status":"N","last_f2_date":"2011-10-03","first_file_date":"2011-05-25","cycles":[2012,2014,2016,2018],"incumbent_challenge":"O","active_through":2012,"load_date":"2011-10-04T23:20:42","state":"MT","party_full":"DEMOCRATIC PARTY","district_number":0,"incumbent_challenge_full":"Open seat","candidate_id":"H2MT00039","office":"H","name":"ABARR, JOHN ALLEN","office_full":"House"},{"federal_funds_flag":false,"last_file_date":"2007-06-05","district":"05","election_years":[2006,2008],"flags":"H6NJ05155","has_raised_funds":true,"party":"DEM","election_districts":["05","05"],"candidate_status":"C","last_f2_date":"2007-06-05","first_file_date":"2006-03-28","cycles":[2006,2008],"incumbent_challenge":"C","active_through":2008,"load_date":"2009-04-29T00:00:00","state":"NJ","party_full":"DEMOCRATIC PARTY","district_number":5,"incumbent_challenge_full":"Challenger","candidate_id":"H6NJ05155","office":"H","name":"ABATE, CAMILLE M","office_full":"House"},{"federal_funds_flag":false,"last_file_date":"1992-04-15","district":"12","election_years":[1992],"flags":"H2NJ12036","has_raised_funds":true,"party":"DEM","election_districts":["12"],"candidate_status":"P","last_f2_date":"1992-04-15","first_file_date":"1992-04-15","cycles":[1992,1994,1996,1998],"incumbent_challenge":"C","active_through":1992,"load_date":"2002-04-03T00:00:00","state":"NJ","party_full":"DEMOCRATIC PARTY","district_number":12,"incumbent_challenge_full":"Challenger","candidate_id":"H2NJ12036","office":"H","name":"ABATE, FRANK G","office_full":"House"},{"federal_funds_flag":false,"last_file_date":"1995-10-02","district":"01","election_years":[1996],"flags":"H6SD00077","has_raised_funds":true,"party":"DEM","election_districts":["01"],"candidate_status":"P","last_f2_date":"1995-10-02","first_file_date":"1995-10-02","cycles":[1996,1998],"incumbent_challenge":"C","active_through":1996,"load_date":"2002-04-03T00:00:00","state":"SD","party_full":"DEMOCRATIC PARTY","district_number":1,"incumbent_challenge_full":"Challenger","candidate_id":"H6SD00077","office":"H","name":"ABBOTT, JAMES W","office_full":"House"},{"federal_funds_flag":false,"last_file_date":"1988-08-29","district":"00","election_years":[1986,1988],"flags":"S6CA00345","has_raised_funds":true,"party":"DEM","election_districts":["00","00"],"candidate_status":"N","last_f2_date":"1988-08-29","first_file_date":"1988-05-16","cycles":[1986,1988],"incumbent_challenge":"C","active_through":1988,"load_date":"2005-05-26T00:00:00","state":"CA","party_full":"DEMOCRATIC PARTY","district_number":0,"incumbent_challenge_full":"Challenger","candidate_id":"S6CA00345","office":"S","name":"ABBOTT, JOHN HANCOCK","office_full":"Senate"},{"federal_funds_flag":true,"last_file_date":"1992-06-16","district":"00","election_years":[1988,1992],"flags":"P80002579","has_raised_funds":true,"party":"DEM","election_districts":["00","00"],"candidate_status":"P","last_f2_date":"1992-06-16","first_file_date":"1988-08-29","cycles":[1988,1990,1992,1994,1996,1998],"incumbent_challenge":"C","active_through":1992,"load_date":"2002-04-03T00:00:00","state":"US","party_full":"DEMOCRATIC PARTY","district_number":0,"incumbent_challenge_full":"Challenger","candidate_id":"P80002579","office":"P","name":"ABBOTT, JOHN HANCOCK","office_full":"President"},{"federal_funds_flag":false,"last_file_date":"2000-05-25","district":"03","election_years":[1994,1996,2000],"flags":"H4KY03095","has_raised_funds":true,"party":"DEM","election_districts":["03","03","03"],"candidate_status":"P","last_f2_date":"2000-05-25","first_file_date":"1994-05-11","cycles":[1994,1996,2000],"incumbent_challenge":"C","active_through":2000,"load_date":"2002-04-07T00:00:00","state":"KY","party_full":"DEMOCRATIC PARTY","district_number":3,"incumbent_challenge_full":"Challenger","candidate_id":"H4KY03095","office":"H","name":"ABBOTT, RAYMOND H","office_full":"House"},{"federal_funds_flag":false,"last_file_date":"2012-11-16","district":"03","election_years":[2014],"flags":"H4MI03201","has_raised_funds":false,"party":"DEM","election_districts":["03"],"candidate_status":"N","last_f2_date":"2012-11-16","first_file_date":"2012-11-16","cycles":[2012,2014],"incumbent_challenge":"C","active_through":2014,"load_date":"2013-01-03T22:17:08","state":"MI","party_full":"DEMOCRATIC PARTY","district_number":3,"incumbent_challenge_full":"Challenger","candidate_id":"H4MI03201","office":"H","name":"ABBOTT, RICHARD ALLEN IV","office_full":"House"},{"federal_funds_flag":false,"last_file_date":"2004-01-22","district":"04","election_years":[2002,2004],"flags":"H2IN04101","has_raised_funds":true,"party":"DEM","election_districts":["04","04"],"candidate_status":"P","last_f2_date":"2004-01-22","first_file_date":"2002-06-05","cycles":[2002,2004,2006,2008],"incumbent_challenge":"C","active_through":2004,"load_date":"2004-01-29T00:00:00","state":"IN","party_full":"DEMOCRATIC PARTY","district_number":4,"incumbent_challenge_full":"Challenger","candidate_id":"H2IN04101","office":"H","name":"ABBOTT, WILLIAM ANTHONY","office_full":"House"},{"federal_funds_flag":false,"last_file_date":"2017-04-11","district":"00","election_years":[2018],"flags":"S8AZ00122","has_raised_funds":true,"party":"DEM","election_districts":["00"],"candidate_status":"C","last_f2_date":"2017-04-11","first_file_date":"2017-04-11","cycles":[2018],"incumbent_challenge":"C","active_through":2018,"load_date":"2017-10-31T20:56:03","state":"AZ","party_full":"DEMOCRATIC PARTY","district_number":0,"incumbent_challenge_full":"Challenger","candidate_id":"S8AZ00122","office":"S","name":"ABBOUD, DEEDRA","office_full":"Senate"},{"federal_funds_flag":false,"last_file_date":"2007-08-03","district":"16","election_years":[2008],"flags":"H8IL16062","has_raised_funds":true,"party":"DEM","election_districts":["16"],"candidate_status":"P","last_f2_date":"2007-08-03","first_file_date":"2007-08-03","cycles":[2008,2010,2012],"incumbent_challenge":"C","active_through":2008,"load_date":"2008-01-07T21:45:39","state":"IL","party_full":"DEMOCRATIC PARTY","district_number":16,"incumbent_challenge_full":"Challenger","candidate_id":"H8IL16062","office":"H","name":"ABBOUD, ROBERT","office_full":"House"},{"federal_funds_flag":false,"last_file_date":"2017-01-18","district":"05","election_years":[2018],"flags":"H8MN05163","has_raised_funds":true,"party":"DEM","election_districts":["05"],"candidate_status":"C","last_f2_date":"2017-01-18","first_file_date":"2017-01-18","cycles":[2018],"incumbent_challenge":"C","active_through":2018,"load_date":"2017-05-04T23:07:53","state":"MN","party_full":"DEMOCRATIC PARTY","district_number":5,"incumbent_challenge_full":"Challenger","candidate_id":"H8MN05163","office":"H","name":"ABDULAHI, JAMAL MR.","office_full":"House"},{"federal_funds_flag":false,"last_file_date":"2017-10-20","district":"06","election_years":[2018],"flags":"H8GA06377","has_raised_funds":true,"party":"DEM","election_districts":["06"],"candidate_status":"C","last_f2_date":"2017-10-20","first_file_date":"2017-10-20","cycles":[2018],"incumbent_challenge":"C","active_through":2018,"load_date":"2018-01-24T21:11:39","state":"GA","party_full":"DEMOCRATIC PARTY","district_number":6,"incumbent_challenge_full":"Challenger","candidate_id":"H8GA06377","office":"H","name":"ABEL, KEVIN","office_full":"House"},{"federal_funds_flag":false,"last_file_date":"2008-11-05","district":"01","election_years":[1986,1988,1990,1992,1994,1996,1998,2000,2002,2004,2006,2008,2010],"flags":"H6HI01121","has_raised_funds":true,"party":"DEM","election_districts":["01","01","01","01","01","01","01","01","01","01","01","01","01"],"candidate_status":"P","last_f2_date":"2008-11-05","first_file_date":"1986-01-31","cycles":[1986,1988,1990,1992,1994,1996,1998,2000,2002,2004,2006,2008,2010,2012],"incumbent_challenge":"C","active_through":2010,"load_date":"2011-02-24T10:53:11","state":"HI","party_full":"DEMOCRATIC PARTY","district_number":1,"incumbent_challenge_full":"Challenger","candidate_id":"H6HI01121","office":"H","name":"ABERCROMBIE, NEIL","office_full":"House"},{"federal_funds_flag":false,"last_file_date":"1992-07-06","district":"03","election_years":[1992],"flags":"H2MO03043","has_raised_funds":false,"party":"DEM","election_districts":["03"],"candidate_status":"N","last_f2_date":null,"first_file_date":"1992-07-06","cycles":[1992],"incumbent_challenge":"C","active_through":1992,"load_date":"2002-03-30T00:00:00","state":"MO","party_full":"DEMOCRATIC PARTY","district_number":3,"incumbent_challenge_full":"Challenger","candidate_id":"H2MO03043","office":"H","name":"ABERNATHY, NED L.","office_full":"House"},{"federal_funds_flag":false,"last_file_date":"1980-07-27","district":"05","election_years":[1977],"flags":"H6GA05134","has_raised_funds":true,"party":"DEM","election_districts":["05"],"candidate_status":"P","last_f2_date":"1977-02-11","first_file_date":"1977-02-11","cycles":[1978,1980,1982,1984],"incumbent_challenge":"C","active_through":1977,"load_date":"2002-03-30T00:00:00","state":"GA","party_full":"DEMOCRATIC PARTY","district_number":5,"incumbent_challenge_full":"Challenger","candidate_id":"H6GA05134","office":"H","name":"ABERNATHY, RALPH DAVID","office_full":"House"},{"federal_funds_flag":false,"last_file_date":null,"district":"01","election_years":[1984],"flags":"H4AR01010","has_raised_funds":false,"party":"DEM","election_districts":["01"],"candidate_status":"N","last_f2_date":null,"first_file_date":null,"cycles":[1984],"incumbent_challenge":null,"active_through":1984,"load_date":"2002-03-30T00:00:00","state":"AR","party_full":"DEMOCRATIC PARTY","district_number":1,"incumbent_challenge_full":null,"candidate_id":"H4AR01010","office":"H","name":"ABERNATHY, STEVE","office_full":"House"},{"federal_funds_flag":false,"last_file_date":"1984-02-29","district":"20","election_years":[1984],"flags":"H4PA20012","has_raised_funds":true,"party":"DEM","election_districts":["20"],"candidate_status":"C","last_f2_date":"1984-02-29","first_file_date":"1984-02-29","cycles":[1984],"incumbent_challenge":null,"active_through":1984,"load_date":"2002-03-30T00:00:00","state":"PA","party_full":"DEMOCRATIC PARTY","district_number":20,"incumbent_challenge_full":null,"candidate_id":"H4PA20012","office":"H","name":"ABER, ROBERT M","office_full":"House"}]}
